<?xml version="1.0" encoding="UTF-8" standalone="no"?>
<!DOCTYPE svg PUBLIC "-//W3C//DTD SVG 1.1//EN"
 "http://www.w3.org/Graphics/SVG/1.1/DTD/svg11.dtd">
<!-- Generated by graphviz version 2.40.1 (20161225.0304)
 -->
<!-- Title: dependencies Pages: 1 -->
<svg width="576pt" height="211pt"
 viewBox="0.00 0.00 576.00 211.00" xmlns="http://www.w3.org/2000/svg" xmlns:xlink="http://www.w3.org/1999/xlink">
<g id="graph0" class="graph" transform="scale(1 1) rotate(0) translate(4 207)">
<title>dependencies</title>
<polygon fill="#ffffff" stroke="transparent" points="-4,4 -4,-207 572,-207 572,4 -4,4"/>
<text text-anchor="start" x="263.0091" y="-42.4" font-family="sans-serif" font-weight="bold" font-size="14.00" fill="#000000">Legend</text>
<polygon fill="#ffffb3" stroke="transparent" points="50,-10 50,-30 70,-30 70,-10 50,-10"/>
<text text-anchor="start" x="73.629" y="-15.4" font-family="sans-serif" font-size="14.00" fill="#000000"> &#160;Declarations</text>
<polygon fill="#8dd3c7" stroke="transparent" points="163,-10 163,-30 183,-30 183,-10 163,-10"/>
<text text-anchor="start" x="186.7251" y="-15.4" font-family="sans-serif" font-size="14.00" fill="#000000"> &#160;Module</text>
<polygon fill="#80b1d3" stroke="transparent" points="249,-10 249,-30 269,-30 269,-10 249,-10"/>
<text text-anchor="start" x="272.7812" y="-15.4" font-family="sans-serif" font-size="14.00" fill="#000000"> &#160;Bootstrap</text>
<polygon fill="#fdb462" stroke="transparent" points="346,-10 346,-30 366,-30 366,-10 346,-10"/>
<text text-anchor="start" x="369.6732" y="-15.4" font-family="sans-serif" font-size="14.00" fill="#000000"> &#160;Providers</text>
<polygon fill="#fb8072" stroke="transparent" points="442,-10 442,-30 462,-30 462,-10 442,-10"/>
<text text-anchor="start" x="465.7258" y="-15.4" font-family="sans-serif" font-size="14.00" fill="#000000"> &#160;Exports</text>
<g id="clust1" class="cluster">
<title>cluster_UserprofilePageModule</title>
<polygon fill="none" stroke="#000000" stroke-dasharray="1,5" points="8,-70 8,-195 560,-195 560,-70 8,-70"/>
</g>
<g id="clust2" class="cluster">
<title>cluster_UserprofilePageModule_declarations</title>
<polygon fill="none" stroke="#000000" points="430,-78 430,-130 552,-130 552,-78 430,-78"/>
</g>
<g id="clust4" class="cluster">
<title>cluster_UserprofilePageModule_imports</title>
<polygon fill="none" stroke="#000000" points="16,-78 16,-130 422,-130 422,-78 16,-78"/>
</g>
<!-- UserprofilePage -->
<g id="node1" class="node">
<title>UserprofilePage</title>
<polygon fill="#ffffb3" stroke="#000000" points="544.4552,-122 437.5448,-122 437.5448,-86 544.4552,-86 544.4552,-122"/>
<text text-anchor="middle" x="491" y="-99.8" font-family="Times,serif" font-size="14.00" fill="#000000">UserprofilePage</text>
</g>
<!-- UserprofilePageModule -->
<g id="node2" class="node">
<title>UserprofilePageModule</title>
<polygon fill="#8dd3c7" stroke="#000000" points="389.0058,-187 386.0058,-191 365.0058,-191 362.0058,-187 238.9942,-187 238.9942,-151 389.0058,-151 389.0058,-187"/>
<text text-anchor="middle" x="314" y="-164.8" font-family="Times,serif" font-size="14.00" fill="#000000">UserprofilePageModule</text>
</g>
<!-- UserprofilePage&#45;&gt;UserprofilePageModule -->
<g id="edge1" class="edge">
<title>UserprofilePage&#45;&gt;UserprofilePageModule</title>
<path fill="none" stroke="#000000" d="M491,-122.1061C491,-141.3391 491,-169 491,-169 491,-169 399.0639,-169 399.0639,-169"/>
<polygon fill="#000000" stroke="#000000" points="399.064,-165.5001 389.0639,-169 399.0639,-172.5001 399.064,-165.5001"/>
</g>
<!-- IonicPageModule.forChild(args) -->
<g id="node3" class="node">
<title>IonicPageModule.forChild(args)</title>
<polygon fill="#8dd3c7" stroke="#000000" points="413.6074,-122 410.6074,-126 389.6074,-126 386.6074,-122 214.3926,-122 214.3926,-86 413.6074,-86 413.6074,-122"/>
<text text-anchor="middle" x="314" y="-99.8" font-family="Times,serif" font-size="14.00" fill="#000000">IonicPageModule.forChild(args)</text>
</g>
<!-- IonicPageModule.forChild(args)&#45;&gt;UserprofilePageModule -->
<g id="edge2" class="edge">
<title>IonicPageModule.forChild(args)&#45;&gt;UserprofilePageModule</title>
<path fill="none" stroke="#000000" d="M314,-122.1061C314,-122.1061 314,-140.991 314,-140.991"/>
<polygon fill="#000000" stroke="#000000" points="310.5001,-140.9909 314,-150.991 317.5001,-140.991 310.5001,-140.9909"/>
</g>
<!-- TranslateModule.forChild() -->
<g id="node4" class="node">
<title>TranslateModule.forChild()</title>
<polygon fill="#8dd3c7" stroke="#000000" points="195.8928,-122 192.8928,-126 171.8928,-126 168.8928,-122 24.1072,-122 24.1072,-86 195.8928,-86 195.8928,-122"/>
<text text-anchor="middle" x="110" y="-99.8" font-family="Times,serif" font-size="14.00" fill="#000000">TranslateModule.forChild()</text>
</g>
<!-- TranslateModule.forChild()&#45;&gt;UserprofilePageModule -->
<g id="edge3" class="edge">
<title>TranslateModule.forChild()&#45;&gt;UserprofilePageModule</title>
<path fill="none" stroke="#000000" d="M110,-122.1061C110,-141.3391 110,-169 110,-169 110,-169 228.907,-169 228.907,-169"/>
<polygon fill="#000000" stroke="#000000" points="228.9071,-172.5001 238.907,-169 228.907,-165.5001 228.9071,-172.5001"/>
</g>
</g>
</svg>
