<?xml version="1.0" encoding="UTF-8" standalone="no"?>
<!DOCTYPE svg PUBLIC "-//W3C//DTD SVG 1.1//EN"
 "http://www.w3.org/Graphics/SVG/1.1/DTD/svg11.dtd">
<!-- Generated by graphviz version 2.40.1 (20161225.0304)
 -->
<!-- Title: dependencies Pages: 1 -->
<svg width="504pt" height="211pt"
 viewBox="0.00 0.00 504.00 211.00" xmlns="http://www.w3.org/2000/svg" xmlns:xlink="http://www.w3.org/1999/xlink">
<g id="graph0" class="graph" transform="scale(1 1) rotate(0) translate(4 207)">
<title>dependencies</title>
<polygon fill="#ffffff" stroke="transparent" points="-4,4 -4,-207 500,-207 500,4 -4,4"/>
<text text-anchor="start" x="227.0091" y="-42.4" font-family="sans-serif" font-weight="bold" font-size="14.00" fill="#000000">Legend</text>
<polygon fill="#ffffb3" stroke="transparent" points="14,-10 14,-30 34,-30 34,-10 14,-10"/>
<text text-anchor="start" x="37.629" y="-15.4" font-family="sans-serif" font-size="14.00" fill="#000000"> &#160;Declarations</text>
<polygon fill="#8dd3c7" stroke="transparent" points="127,-10 127,-30 147,-30 147,-10 127,-10"/>
<text text-anchor="start" x="150.7251" y="-15.4" font-family="sans-serif" font-size="14.00" fill="#000000"> &#160;Module</text>
<polygon fill="#80b1d3" stroke="transparent" points="213,-10 213,-30 233,-30 233,-10 213,-10"/>
<text text-anchor="start" x="236.7812" y="-15.4" font-family="sans-serif" font-size="14.00" fill="#000000"> &#160;Bootstrap</text>
<polygon fill="#fdb462" stroke="transparent" points="310,-10 310,-30 330,-30 330,-10 310,-10"/>
<text text-anchor="start" x="333.6732" y="-15.4" font-family="sans-serif" font-size="14.00" fill="#000000"> &#160;Providers</text>
<polygon fill="#fb8072" stroke="transparent" points="406,-10 406,-30 426,-30 426,-10 406,-10"/>
<text text-anchor="start" x="429.7258" y="-15.4" font-family="sans-serif" font-size="14.00" fill="#000000"> &#160;Exports</text>
<g id="clust1" class="cluster">
<title>cluster_BluetoothPageModule</title>
<polygon fill="none" stroke="#000000" stroke-dasharray="1,5" points="71,-70 71,-195 425,-195 425,-70 71,-70"/>
</g>
<g id="clust2" class="cluster">
<title>cluster_BluetoothPageModule_declarations</title>
<polygon fill="none" stroke="#000000" points="303,-78 303,-130 417,-130 417,-78 303,-78"/>
</g>
<g id="clust4" class="cluster">
<title>cluster_BluetoothPageModule_imports</title>
<polygon fill="none" stroke="#000000" points="79,-78 79,-130 295,-130 295,-78 79,-78"/>
</g>
<!-- BluetoothPage -->
<g id="node1" class="node">
<title>BluetoothPage</title>
<polygon fill="#ffffb3" stroke="#000000" points="409.4358,-122 310.5642,-122 310.5642,-86 409.4358,-86 409.4358,-122"/>
<text text-anchor="middle" x="360" y="-99.8" font-family="Times,serif" font-size="14.00" fill="#000000">BluetoothPage</text>
</g>
<!-- BluetoothPageModule -->
<g id="node2" class="node">
<title>BluetoothPageModule</title>
<polygon fill="#8dd3c7" stroke="#000000" points="336.9846,-187 333.9846,-191 312.9846,-191 309.9846,-187 195.0154,-187 195.0154,-151 336.9846,-151 336.9846,-187"/>
<text text-anchor="middle" x="266" y="-164.8" font-family="Times,serif" font-size="14.00" fill="#000000">BluetoothPageModule</text>
</g>
<!-- BluetoothPage&#45;&gt;BluetoothPageModule -->
<g id="edge1" class="edge">
<title>BluetoothPage&#45;&gt;BluetoothPageModule</title>
<path fill="none" stroke="#000000" d="M323.8875,-122.1061C323.8875,-122.1061 323.8875,-140.991 323.8875,-140.991"/>
<polygon fill="#000000" stroke="#000000" points="320.3875,-140.9909 323.8875,-150.991 327.3875,-140.991 320.3875,-140.9909"/>
</g>
<!-- IonicPageModule.forChild(args) -->
<g id="node3" class="node">
<title>IonicPageModule.forChild(args)</title>
<polygon fill="#8dd3c7" stroke="#000000" points="286.6074,-122 283.6074,-126 262.6074,-126 259.6074,-122 87.3926,-122 87.3926,-86 286.6074,-86 286.6074,-122"/>
<text text-anchor="middle" x="187" y="-99.8" font-family="Times,serif" font-size="14.00" fill="#000000">IonicPageModule.forChild(args)</text>
</g>
<!-- IonicPageModule.forChild(args)&#45;&gt;BluetoothPageModule -->
<g id="edge2" class="edge">
<title>IonicPageModule.forChild(args)&#45;&gt;BluetoothPageModule</title>
<path fill="none" stroke="#000000" d="M240.7807,-122.1061C240.7807,-122.1061 240.7807,-140.991 240.7807,-140.991"/>
<polygon fill="#000000" stroke="#000000" points="237.2808,-140.9909 240.7807,-150.991 244.2808,-140.991 237.2808,-140.9909"/>
</g>
</g>
</svg>
